{
  "project_info": {
    "project_number": "404702189271",
    "firebase_url": "https://melon-cinema.firebaseio.com",
    "project_id": "melon-cinema",
    "storage_bucket": "melon-cinema.appspot.com"
  },
  "client": [
    {
      "client_info": {
        "mobilesdk_app_id": "1:404702189271:android:90e507cba23cd3d4",
        "android_client_info": {
          "package_name": "com.ebidhaang.melon"
        }
      },
      "oauth_client": [
        {
          "client_id": "404702189271-csa0d99upc1m0ng0466ois6n36v8dqui.apps.googleusercontent.com",
          "client_type": 1,
          "android_info": {
            "package_name": "com.ebidhaang.melon",
            "certificate_hash": "dd4b99cd9c2998e75ecdd6d5316a0e5d14967a99"
          }
        },
        {
          "client_id": "404702189271-4s2pu8s9gfcr4sup5u7ifgfkpt6bo9ik.apps.googleusercontent.com",
          "client_type": 3
        }
      ],
      "api_key": [
        {
          "current_key": "AIzaSyB79x7Qxgn-vdAnLp5Zw8d2oHyHOW6eglY"
        }
      ],
      "services": {
        "analytics_service": {
          "status": 1
        },
        "appinvite_service": {
          "status": 2,
          "other_platform_oauth_client": [
            {
              "client_id": "404702189271-4s2pu8s9gfcr4sup5u7ifgfkpt6bo9ik.apps.googleusercontent.com",
              "client_type": 3
            }
          ]
        },
        "ads_service": {
          "status": 2
        }
      }
    }
  ],
  "configuration_version": "1"
}